module bot

go 1.19

require (
	github.com/bwmarrin/discordgo v0.27.0
	github.com/joho/godotenv v1.5.1
	github.com/lib/pq v1.10.7
	github.com/namsral/flag v1.7.4-pre
)

require (
	github.com/gorilla/websocket v1.4.2 // indirect
	golang.org/x/crypto v0.0.0-20210421170649-83a5a9bb288b // indirect
	golang.org/x/sys v0.0.0-20201119102817-f84b799fce68 // indirect
)
